{
    "response": {
        "status": "ok",
        "userTier": "developer",
        "total": 49935,
        "startIndex": 1,
        "pageSize": 10,
        "currentPage": 1,
        "pages": 4994,
        "orderBy": "relevance",
        "results": [
            {
                "id": "technology/article/2024/aug/21/sound-vision-magazine-closing",
                "type": "article",
                "sectionId": "global",
                "sectionName": "Global",
                "webPublicationDate": "2024-08-21T13:30:07Z",
                "webTitle": "I founded a pioneering tech magazine. Tech killed it off |  Michael Antonoff",
                "webUrl": "https://www.theguardian.com/technology/article/2024/aug/21/sound-vision-magazine-closing",
                "apiUrl": "https://content.guardianapis.com/technology/article/2024/aug/21/sound-vision-magazine-closing",
                "isHosted": false
            },
            {
                "id": "politics/2024/dec/08/uk-government-whitehall-startup-tech-worker-secondments",
                "type": "article",
                "sectionId": "politics",
                "sectionName": "Politics",
                "webPublicationDate": "2024-12-08T22:30:05Z",
                "webTitle": "Government seeks Whitehall \u2018startup\u2019 culture with tech worker secondments",
                "webUrl": "https://www.theguardian.com/politics/2024/dec/08/uk-government-whitehall-startup-tech-worker-secondments",
                "apiUrl": "https://content.guardianapis.com/politics/2024/dec/08/uk-government-whitehall-startup-tech-worker-secondments",
                "isHosted": false,
                "pillarId": "pillar/news",
                "pillarName": "News"
            },
            {
                "id": "us-news/2024/dec/03/trump-administration-mark-zuckerberg",
                "type": "article",
                "sectionId": "us-news",
                "sectionName": "US news",
                "webPublicationDate": "2024-12-03T19:01:28Z",
                "webTitle": "Mark Zuckerberg seeks \u2018active role\u2019 in Trump tech policy ",
                "webUrl": "https://www.theguardian.com/us-news/2024/dec/03/trump-administration-mark-zuckerberg",
                "apiUrl": "https://content.guardianapis.com/us-news/2024/dec/03/trump-administration-mark-zuckerberg",
                "isHosted": false,
                "pillarId": "pillar/news",
                "pillarName": "News"
            },
            {
                "id": "technology/2025/jan/11/tech-giants-told-uk-online-safety-laws-not-up-for-negotiation",
                "type": "article",
                "sectionId": "technology",
                "sectionName": "Technology",
                "webPublicationDate": "2025-01-11T18:59:32Z",
                "webTitle": "Tech giants told UK online safety laws \u2018not up for negotiation\u2019",
                "webUrl": "https://www.theguardian.com/technology/2025/jan/11/tech-giants-told-uk-online-safety-laws-not-up-for-negotiation",
                "apiUrl": "https://content.guardianapis.com/technology/2025/jan/11/tech-giants-told-uk-online-safety-laws-not-up-for-negotiation",
                "isHosted": false,
                "pillarId": "pillar/news",
                "pillarName": "News"
            },
            {
                "id": "us-news/2025/jan/06/man-trapped-waymo-los-angeles",
                "type": "article",
                "sectionId": "technology",
                "sectionName": "Technology",
                "webPublicationDate": "2025-01-06T21:07:58Z",
                "webTitle": "LA tech entrepreneur nearly misses flight after getting trapped in robotaxi",
                "webUrl": "https://www.theguardian.com/us-news/2025/jan/06/man-trapped-waymo-los-angeles",
                "apiUrl": "https://content.guardianapis.com/us-news/2025/jan/06/man-trapped-waymo-los-angeles",
                "isHosted": false,
                "pillarId": "pillar/news",
                "pillarName": "News"
            },
            {
                "id": "technology/2025/jan/01/muslim-friendly-websites-apps",
                "type": "article",
                "sectionId": "technology",
                "sectionName": "Technology",
                "webPublicationDate": "2025-01-02T21:07:25Z",
                "webTitle": "Halal tech: how Muslim-friendly websites and apps blossomed in 2024",
                "webUrl": "https://www.theguardian.com/technology/2025/jan/01/muslim-friendly-websites-apps",
                "apiUrl": "https://content.guardianapis.com/technology/2025/jan/01/muslim-friendly-websites-apps",
                "isHosted": false,
                "pillarId": "pillar/news",
                "pillarName": "News"
            },
            {
                "id": "australia-news/2024/dec/06/celebrity-scam-ads-still-targeting-australians-despite-tech-giants-crackdowns",
                "type": "article",
                "sectionId": "australia-news",
                "sectionName": "Australia news",
                "webPublicationDate": "2024-12-05T14:00:04Z",
                "webTitle": "Celebrity scam ads still targeting Australians despite tech giants\u2019 crackdowns",
                "webUrl": "https://www.theguardian.com/australia-news/2024/dec/06/celebrity-scam-ads-still-targeting-australians-despite-tech-giants-crackdowns",
                "apiUrl": "https://content.guardianapis.com/australia-news/2024/dec/06/celebrity-scam-ads-still-targeting-australians-despite-tech-giants-crackdowns",
                "isHosted": false,
                "pillarId": "pillar/news",
                "pillarName": "News"
            },
            {
                "id": "technology/2024/dec/27/michael-adex-entrepreneur-aiming-boost-black-founded-tech-startups-digital-catapult",
                "type": "article",
                "sectionId": "technology",
                "sectionName": "Technology",
                "webPublicationDate": "2024-12-27T16:00:15Z",
                "webTitle": "Michael Adex: the entrepreneur aiming to inspire black-founded tech startups",
                "webUrl": "https://www.theguardian.com/technology/2024/dec/27/michael-adex-entrepreneur-aiming-boost-black-founded-tech-startups-digital-catapult",
                "apiUrl": "https://content.guardianapis.com/technology/2024/dec/27/michael-adex-entrepreneur-aiming-boost-black-founded-tech-startups-digital-catapult",
                "isHosted": false,
                "pillarId": "pillar/news",
                "pillarName": "News"
            },
            {
                "id": "technology/2024/dec/17/uk-proposes-letting-tech-firms-use-copyrighted-work-to-train-ai",
                "type": "article",
                "sectionId": "technology",
                "sectionName": "Technology",
                "webPublicationDate": "2024-12-17T13:48:57Z",
                "webTitle": "UK proposes letting tech firms use copyrighted work to train AI",
                "webUrl": "https://www.theguardian.com/technology/2024/dec/17/uk-proposes-letting-tech-firms-use-copyrighted-work-to-train-ai",
                "apiUrl": "https://content.guardianapis.com/technology/2024/dec/17/uk-proposes-letting-tech-firms-use-copyrighted-work-to-train-ai",
                "isHosted": false,
                "pillarId": "pillar/news",
                "pillarName": "News"
            },
            {
                "id": "technology/2025/jan/09/elon-musk-lying-like-hell-afd-interview-thierry-breton-eu",
                "type": "article",
                "sectionId": "technology",
                "sectionName": "Technology",
                "webPublicationDate": "2025-01-09T14:15:00Z",
                "webTitle": "Musk \u2018lying like hell\u2019 over AfD interview, says ex-EU tech leader",
                "webUrl": "https://www.theguardian.com/technology/2025/jan/09/elon-musk-lying-like-hell-afd-interview-thierry-breton-eu",
                "apiUrl": "https://content.guardianapis.com/technology/2025/jan/09/elon-musk-lying-like-hell-afd-interview-thierry-breton-eu",
                "isHosted": false,
                "pillarId": "pillar/news",
                "pillarName": "News"
            }
        ]
    }
}